<?xml version="1.0" encoding="UTF-8"?>
<svg width="1744px" height="68px" viewBox="0 0 1744 68" version="1.1" xmlns="http://www.w3.org/2000/svg" xmlns:xlink="http://www.w3.org/1999/xlink">
    <!-- Generator: Sketch 48.2 (47327) - http://www.bohemiancoding.com/sketch -->
    <title>Group 15</title>
    <desc>Created with Sketch.</desc>
    <defs>
        <linearGradient x1="50%" y1="0%" x2="50%" y2="100%" id="linearGradient-1">
            <stop stop-color="#FFFFFF" offset="0%"></stop>
            <stop stop-color="#BFD0DA" offset="100%"></stop>
        </linearGradient>
        <linearGradient x1="49.7464823%" y1="50%" x2="49.7892201%" y2="50%" id="linearGradient-2">
            <stop stop-color="#367A77" offset="0%"></stop>
            <stop stop-color="#70C0C0" offset="100%"></stop>
        </linearGradient>
    </defs>
    <g id="Page-1" stroke="none" stroke-width="1" fill="none" fill-rule="evenodd">
        <g id="Group-15">
            <g id="Group-2">
                <g id="Group" transform="translate(172.000000, 0.000000)">
                    <rect id="Rectangle-20" fill="#BFD0DA" x="5.45454545" y="11" width="1.09090909" height="57"></rect>
                    <path d="M6,11 C9.3137085,11 12,8.76142375 12,6 C12,3.23857625 0,3.23857625 0,6 C0,8.76142375 2.6862915,11 6,11 Z" id="Oval-4" stroke="url(#linearGradient-1)"></path>
                    <path d="M6,0 L12,5 C10.0231712,4.33333333 8.03089489,4 6.02317116,4 C4.01544744,4 2.00772372,4.33333333 0,5 L6,0 Z" id="Triangle" fill="#BFD0DA"></path>
                    <ellipse id="Oval-3" fill="#FFFFFF" cx="6" cy="5.5" rx="4.90909091" ry="1.5"></ellipse>
                </g>
                <g id="Group-Copy-2" transform="translate(39.000000, 0.000000)">
                    <rect id="Rectangle-20" fill="#BFD0DA" x="5.45454545" y="11" width="1.09090909" height="57"></rect>
                    <path d="M6,11 C9.3137085,11 12,8.76142375 12,6 C12,3.23857625 0,3.23857625 0,6 C0,8.76142375 2.6862915,11 6,11 Z" id="Oval-4" stroke="url(#linearGradient-1)"></path>
                    <path d="M6,0 L12,5 C10.0231712,4.33333333 8.03089489,4 6.02317116,4 C4.01544744,4 2.00772372,4.33333333 0,5 L6,0 Z" id="Triangle" fill="#BFD0DA"></path>
                    <ellipse id="Oval-3" fill="#FFFFFF" cx="6" cy="5.5" rx="4.90909091" ry="1.5"></ellipse>
                </g>
                <g id="Group-Copy" transform="translate(510.000000, 0.000000)">
                    <rect id="Rectangle-20" fill="#BFD0DA" x="5.45454545" y="11" width="1.09090909" height="57"></rect>
                    <path d="M6,11 C9.3137085,11 12,8.76142375 12,6 C12,3.23857625 0,3.23857625 0,6 C0,8.76142375 2.6862915,11 6,11 Z" id="Oval-4" stroke="url(#linearGradient-1)"></path>
                    <path d="M6,0 L12,5 C10.0231712,4.33333333 8.03089489,4 6.02317116,4 C4.01544744,4 2.00772372,4.33333333 0,5 L6,0 Z" id="Triangle" fill="#BFD0DA"></path>
                    <ellipse id="Oval-3" fill="#FFFFFF" cx="6" cy="5.5" rx="4.90909091" ry="1.5"></ellipse>
                </g>
                <g id="Group-Copy-3" transform="translate(695.000000, 0.000000)">
                    <rect id="Rectangle-20" fill="#BFD0DA" x="5.45454545" y="11" width="1.09090909" height="57"></rect>
                    <path d="M6,11 C9.3137085,11 12,8.76142375 12,6 C12,3.23857625 0,3.23857625 0,6 C0,8.76142375 2.6862915,11 6,11 Z" id="Oval-4" stroke="url(#linearGradient-1)"></path>
                    <path d="M6,0 L12,5 C10.0231712,4.33333333 8.03089489,4 6.02317116,4 C4.01544744,4 2.00772372,4.33333333 0,5 L6,0 Z" id="Triangle" fill="#BFD0DA"></path>
                    <ellipse id="Oval-3" fill="#FFFFFF" cx="6" cy="5.5" rx="4.90909091" ry="1.5"></ellipse>
                </g>
                <g id="trees" transform="translate(0.000000, 13.000000)">
                    <g id="tree1" transform="translate(184.000000, 0.000000)">
                        <polygon id="Path-6-Copy" fill="url(#linearGradient-2)" points="0.418574219 50.2309338 28.5921875 50.2309338 14.5053809 0.664407951"></polygon>
                        <rect id="Rectangle-19-Copy" fill="#635446" x="9.28" y="50.2857143" width="10.44" height="4.57142857"></rect>
                    </g>
                    <g id="tree1" transform="translate(451.000000, 0.000000)">
                        <polygon id="Path-6-Copy-2" fill="url(#linearGradient-2)" points="0.418574219 50.2309338 28.5921875 50.2309338 14.5053809 0.664407951"></polygon>
                        <rect id="Rectangle-19-Copy-2" fill="#635446" x="9.28" y="50.2857143" width="10.44" height="4.57142857"></rect>
                    </g>
                    <g id="tree1-copy-2" transform="translate(613.000000, 0.000000)">
                        <polygon id="Path-6-Copy-2" fill="url(#linearGradient-2)" points="0.418574219 50.2309338 28.5921875 50.2309338 14.5053809 0.664407951"></polygon>
                        <rect id="Rectangle-19-Copy-2" fill="#635446" x="9.28" y="50.2857143" width="10.44" height="4.57142857"></rect>
                    </g>
                    <g id="tree1-copy" transform="translate(713.000000, 0.000000)">
                        <polygon id="Path-6-Copy-2" fill="url(#linearGradient-2)" points="0.418574219 50.2309338 28.5921875 50.2309338 14.5053809 0.664407951"></polygon>
                        <rect id="Rectangle-19-Copy-2" fill="#635446" x="9.28" y="50.2857143" width="10.44" height="4.57142857"></rect>
                    </g>
                    <g id="tree2" transform="translate(530.000000, 16.000000)">
                        <path d="M1.25709701,30.0067964 C3.56276629,38.3410557 13.6597125,38.3410557 15.9653817,30.0067964 C18.5431984,20.6888112 13.4947253,0.400425298 8.61123937,0.400425298 C3.72775347,0.400425298 -1.32071961,20.6888112 1.25709701,30.0067964 Z" id="Path-6-Copy-3" fill="url(#linearGradient-2)"></path>
                        <rect id="Rectangle-19-Copy-3" fill="#635446" x="5.66666667" y="35.5588235" width="5.66666667" height="3.44117647"></rect>
                    </g>
                    <g id="tree2-copy-2" transform="translate(172.000000, 16.000000)">
                        <path d="M1.25709701,30.0067964 C3.56276629,38.3410557 13.6597125,38.3410557 15.9653817,30.0067964 C18.5431984,20.6888112 13.4947253,0.400425298 8.61123937,0.400425298 C3.72775347,0.400425298 -1.32071961,20.6888112 1.25709701,30.0067964 Z" id="Path-6-Copy-3" fill="url(#linearGradient-2)"></path>
                        <rect id="Rectangle-19-Copy-3" fill="#635446" x="5.66666667" y="35.5588235" width="5.66666667" height="3.44117647"></rect>
                    </g>
                    <g id="tree2-copy-3" transform="translate(83.000000, 16.000000)">
                        <path d="M1.25709701,30.0067964 C3.56276629,38.3410557 13.6597125,38.3410557 15.9653817,30.0067964 C18.5431984,20.6888112 13.4947253,0.400425298 8.61123937,0.400425298 C3.72775347,0.400425298 -1.32071961,20.6888112 1.25709701,30.0067964 Z" id="Path-6-Copy-3" fill="url(#linearGradient-2)"></path>
                        <rect id="Rectangle-19-Copy-3" fill="#635446" x="5.66666667" y="35.5588235" width="5.66666667" height="3.44117647"></rect>
                    </g>
                    <g id="tree2-copy-4" transform="translate(0.000000, 16.000000)">
                        <path d="M1.25709701,30.0067964 C3.56276629,38.3410557 13.6597125,38.3410557 15.9653817,30.0067964 C18.5431984,20.6888112 13.4947253,0.400425298 8.61123937,0.400425298 C3.72775347,0.400425298 -1.32071961,20.6888112 1.25709701,30.0067964 Z" id="Path-6-Copy-3" fill="url(#linearGradient-2)"></path>
                        <rect id="Rectangle-19-Copy-3" fill="#635446" x="5.66666667" y="35.5588235" width="5.66666667" height="3.44117647"></rect>
                    </g>
                    <g id="bush" transform="translate(51.000000, 40.000000)" fill="url(#linearGradient-2)">
                        <path d="M58.3536585,15 C66.1004192,15 66.9512195,13.4332334 66.9512195,8.65384615 C66.9512195,3.8744589 63.1019603,0 58.3536585,0 C53.6053567,0 49.7560976,3.8744589 49.7560976,8.65384615 C49.7560976,13.4332334 50.6068979,15 58.3536585,15 Z" id="Oval-2-Copy"></path>
                        <path d="M184.45122,15 C192.19798,15 193.04878,13.4332334 193.04878,8.65384615 C193.04878,3.8744589 189.199521,0 184.45122,0 C179.702918,0 175.853659,3.8744589 175.853659,8.65384615 C175.853659,13.4332334 176.704459,15 184.45122,15 Z" id="Oval-2-Copy-2"></path>
                        <path d="M201.597561,15 C209.344322,15 210.195122,13.4332334 210.195122,8.65384615 C210.195122,3.8744589 206.345863,0 201.597561,0 C196.849259,0 193,3.8744589 193,8.65384615 C193,13.4332334 193.8508,15 201.597561,15 Z" id="Oval-2-Copy-5"></path>
                        <path d="M8.59756098,15 C16.3443216,15 17.195122,13.4332334 17.195122,8.65384615 C17.195122,3.8744589 13.3458628,0 8.59756098,0 C3.84925916,0 0,3.8744589 0,8.65384615 C0,13.4332334 0.850800305,15 8.59756098,15 Z" id="Oval-2-Copy-6"></path>
                        <path d="M637.597561,15 C645.344322,15 646.195122,13.4332334 646.195122,8.65384615 C646.195122,3.8744589 642.345863,0 637.597561,0 C632.849259,0 629,3.8744589 629,8.65384615 C629,13.4332334 629.8508,15 637.597561,15 Z" id="Oval-2-Copy-7"></path>
                        <path d="M459.573171,15 C467.319931,15 468.170732,13.4332334 468.170732,8.65384615 C468.170732,3.8744589 464.321473,0 459.573171,0 C454.824869,0 450.97561,3.8744589 450.97561,8.65384615 C450.97561,13.4332334 451.82641,15 459.573171,15 Z" id="Oval-2-Copy-3"></path>
                        <path d="M539.817073,15 C547.563834,15 548.414634,13.4332334 548.414634,8.65384615 C548.414634,3.8744589 544.565375,0 539.817073,0 C535.068771,0 531.219512,3.8744589 531.219512,8.65384615 C531.219512,13.4332334 532.070312,15 539.817073,15 Z" id="Oval-2-Copy-4"></path>
                    </g>
                </g>
            </g>
            <g id="Group-2-Copy-2" transform="translate(1356.000000, 34.000000) scale(-1, 1) translate(-1356.000000, -34.000000) translate(968.000000, 0.000000)">
                <g id="Group" transform="translate(172.000000, 0.000000)">
                    <rect id="Rectangle-20" fill="#BFD0DA" x="5.45454545" y="11" width="1.09090909" height="57"></rect>
                    <path d="M6,11 C9.3137085,11 12,8.76142375 12,6 C12,3.23857625 0,3.23857625 0,6 C0,8.76142375 2.6862915,11 6,11 Z" id="Oval-4" stroke="url(#linearGradient-1)"></path>
                    <path d="M6,0 L12,5 C10.0231712,4.33333333 8.03089489,4 6.02317116,4 C4.01544744,4 2.00772372,4.33333333 0,5 L6,0 Z" id="Triangle" fill="#BFD0DA"></path>
                    <ellipse id="Oval-3" fill="#FFFFFF" cx="6" cy="5.5" rx="4.90909091" ry="1.5"></ellipse>
                </g>
                <g id="Group-Copy-2" transform="translate(39.000000, 0.000000)">
                    <rect id="Rectangle-20" fill="#BFD0DA" x="5.45454545" y="11" width="1.09090909" height="57"></rect>
                    <path d="M6,11 C9.3137085,11 12,8.76142375 12,6 C12,3.23857625 0,3.23857625 0,6 C0,8.76142375 2.6862915,11 6,11 Z" id="Oval-4" stroke="url(#linearGradient-1)"></path>
                    <path d="M6,0 L12,5 C10.0231712,4.33333333 8.03089489,4 6.02317116,4 C4.01544744,4 2.00772372,4.33333333 0,5 L6,0 Z" id="Triangle" fill="#BFD0DA"></path>
                    <ellipse id="Oval-3" fill="#FFFFFF" cx="6" cy="5.5" rx="4.90909091" ry="1.5"></ellipse>
                </g>
                <g id="Group-Copy" transform="translate(510.000000, 0.000000)">
                    <rect id="Rectangle-20" fill="#BFD0DA" x="5.45454545" y="11" width="1.09090909" height="57"></rect>
                    <path d="M6,11 C9.3137085,11 12,8.76142375 12,6 C12,3.23857625 0,3.23857625 0,6 C0,8.76142375 2.6862915,11 6,11 Z" id="Oval-4" stroke="url(#linearGradient-1)"></path>
                    <path d="M6,0 L12,5 C10.0231712,4.33333333 8.03089489,4 6.02317116,4 C4.01544744,4 2.00772372,4.33333333 0,5 L6,0 Z" id="Triangle" fill="#BFD0DA"></path>
                    <ellipse id="Oval-3" fill="#FFFFFF" cx="6" cy="5.5" rx="4.90909091" ry="1.5"></ellipse>
                </g>
                <g id="Group-Copy-3" transform="translate(695.000000, 0.000000)">
                    <rect id="Rectangle-20" fill="#BFD0DA" x="5.45454545" y="11" width="1.09090909" height="57"></rect>
                    <path d="M6,11 C9.3137085,11 12,8.76142375 12,6 C12,3.23857625 0,3.23857625 0,6 C0,8.76142375 2.6862915,11 6,11 Z" id="Oval-4" stroke="url(#linearGradient-1)"></path>
                    <path d="M6,0 L12,5 C10.0231712,4.33333333 8.03089489,4 6.02317116,4 C4.01544744,4 2.00772372,4.33333333 0,5 L6,0 Z" id="Triangle" fill="#BFD0DA"></path>
                    <ellipse id="Oval-3" fill="#FFFFFF" cx="6" cy="5.5" rx="4.90909091" ry="1.5"></ellipse>
                </g>
                <g id="trees" transform="translate(0.000000, 13.000000)">
                    <g id="tree1-copy-4" transform="translate(184.000000, 0.000000)">
                        <polygon id="Path-6-Copy" fill="url(#linearGradient-2)" points="0.418574219 50.2309338 28.5921875 50.2309338 14.5053809 0.664407951"></polygon>
                        <rect id="Rectangle-19-Copy" fill="#635446" x="9.28" y="50.2857143" width="10.44" height="4.57142857"></rect>
                    </g>
                    <g id="tree1" transform="translate(451.000000, 0.000000)">
                        <polygon id="Path-6-Copy-2" fill="url(#linearGradient-2)" points="0.418574219 50.2309338 28.5921875 50.2309338 14.5053809 0.664407951"></polygon>
                        <rect id="Rectangle-19-Copy-2" fill="#635446" x="9.28" y="50.2857143" width="10.44" height="4.57142857"></rect>
                    </g>
                    <g id="tree1-copy-2" transform="translate(619.000000, 0.000000)">
                        <polygon id="Path-6-Copy-2" fill="url(#linearGradient-2)" points="0.418574219 50.2309338 28.5921875 50.2309338 14.5053809 0.664407951"></polygon>
                        <rect id="Rectangle-19-Copy-2" fill="#635446" x="9.28" y="50.2857143" width="10.44" height="4.57142857"></rect>
                    </g>
                    <g id="tree1-copy" transform="translate(708.000000, 0.000000)">
                        <polygon id="Path-6-Copy-2" fill="url(#linearGradient-2)" points="0.418574219 50.2309338 28.5921875 50.2309338 14.5053809 0.664407951"></polygon>
                        <rect id="Rectangle-19-Copy-2" fill="#635446" x="9.28" y="50.2857143" width="10.44" height="4.57142857"></rect>
                    </g>
                    <g id="tree2" transform="translate(530.000000, 16.000000)">
                        <path d="M1.25709701,30.0067964 C3.56276629,38.3410557 13.6597125,38.3410557 15.9653817,30.0067964 C18.5431984,20.6888112 13.4947253,0.400425298 8.61123937,0.400425298 C3.72775347,0.400425298 -1.32071961,20.6888112 1.25709701,30.0067964 Z" id="Path-6-Copy-3" fill="url(#linearGradient-2)"></path>
                        <rect id="Rectangle-19-Copy-3" fill="#635446" x="5.66666667" y="35.5588235" width="5.66666667" height="3.44117647"></rect>
                    </g>
                    <g id="tree2-copy" transform="translate(759.000000, 16.000000)">
                        <path d="M1.25709701,30.0067964 C3.56276629,38.3410557 13.6597125,38.3410557 15.9653817,30.0067964 C18.5431984,20.6888112 13.4947253,0.400425298 8.61123937,0.400425298 C3.72775347,0.400425298 -1.32071961,20.6888112 1.25709701,30.0067964 Z" id="Path-6-Copy-3" fill="url(#linearGradient-2)"></path>
                        <rect id="Rectangle-19-Copy-3" fill="#635446" x="5.66666667" y="35.5588235" width="5.66666667" height="3.44117647"></rect>
                    </g>
                    <g id="tree2-copy-2" transform="translate(172.000000, 16.000000)">
                        <path d="M1.25709701,30.0067964 C3.56276629,38.3410557 13.6597125,38.3410557 15.9653817,30.0067964 C18.5431984,20.6888112 13.4947253,0.400425298 8.61123937,0.400425298 C3.72775347,0.400425298 -1.32071961,20.6888112 1.25709701,30.0067964 Z" id="Path-6-Copy-3" fill="url(#linearGradient-2)"></path>
                        <rect id="Rectangle-19-Copy-3" fill="#635446" x="5.66666667" y="35.5588235" width="5.66666667" height="3.44117647"></rect>
                    </g>
                    <g id="tree2-copy-3" transform="translate(83.000000, 16.000000)">
                        <path d="M1.25709701,30.0067964 C3.56276629,38.3410557 13.6597125,38.3410557 15.9653817,30.0067964 C18.5431984,20.6888112 13.4947253,0.400425298 8.61123937,0.400425298 C3.72775347,0.400425298 -1.32071961,20.6888112 1.25709701,30.0067964 Z" id="Path-6-Copy-3" fill="url(#linearGradient-2)"></path>
                        <rect id="Rectangle-19-Copy-3" fill="#635446" x="5.66666667" y="35.5588235" width="5.66666667" height="3.44117647"></rect>
                    </g>
                    <g id="tree2-copy-4" transform="translate(0.000000, 16.000000)">
                        <path d="M1.25709701,30.0067964 C3.56276629,38.3410557 13.6597125,38.3410557 15.9653817,30.0067964 C18.5431984,20.6888112 13.4947253,0.400425298 8.61123937,0.400425298 C3.72775347,0.400425298 -1.32071961,20.6888112 1.25709701,30.0067964 Z" id="Path-6-Copy-3" fill="url(#linearGradient-2)"></path>
                        <rect id="Rectangle-19-Copy-3" fill="#635446" x="5.66666667" y="35.5588235" width="5.66666667" height="3.44117647"></rect>
                    </g>
                    <g id="bush" transform="translate(51.000000, 40.000000)" fill="url(#linearGradient-2)">
                        <path d="M58.3536585,15 C66.1004192,15 66.9512195,13.4332334 66.9512195,8.65384615 C66.9512195,3.8744589 63.1019603,0 58.3536585,0 C53.6053567,0 49.7560976,3.8744589 49.7560976,8.65384615 C49.7560976,13.4332334 50.6068979,15 58.3536585,15 Z" id="Oval-2-Copy"></path>
                        <path d="M184.45122,15 C192.19798,15 193.04878,13.4332334 193.04878,8.65384615 C193.04878,3.8744589 189.199521,0 184.45122,0 C179.702918,0 175.853659,3.8744589 175.853659,8.65384615 C175.853659,13.4332334 176.704459,15 184.45122,15 Z" id="Oval-2-Copy-2"></path>
                        <path d="M379.402439,15 C387.1492,15 388,13.4332334 388,8.65384615 C388,3.8744589 384.150741,0 379.402439,0 C374.654137,0 370.804878,3.8744589 370.804878,8.65384615 C370.804878,13.4332334 371.655678,15 379.402439,15 Z" id="Oval-2-Copy-5"></path>
                        <path d="M8.59756098,15 C16.3443216,15 17.195122,13.4332334 17.195122,8.65384615 C17.195122,3.8744589 13.3458628,0 8.59756098,0 C3.84925916,0 0,3.8744589 0,8.65384615 C0,13.4332334 0.850800305,15 8.59756098,15 Z" id="Oval-2-Copy-6"></path>
                        <path d="M687.597561,15 C695.344322,15 696.195122,13.4332334 696.195122,8.65384615 C696.195122,3.8744589 692.345863,0 687.597561,0 C682.849259,0 679,3.8744589 679,8.65384615 C679,13.4332334 679.8508,15 687.597561,15 Z" id="Oval-2-Copy-7"></path>
                        <path d="M459.597561,15 C467.344322,15 468.195122,13.4332334 468.195122,8.65384615 C468.195122,3.8744589 464.345863,0 459.597561,0 C454.849259,0 451,3.8744589 451,8.65384615 C451,13.4332334 451.8508,15 459.597561,15 Z" id="Oval-2-Copy-3"></path>
                        <path d="M527.817073,15 C535.563834,15 536.414634,13.4332334 536.414634,8.65384615 C536.414634,3.8744589 532.565375,0 527.817073,0 C523.068771,0 519.219512,3.8744589 519.219512,8.65384615 C519.219512,13.4332334 520.070312,15 527.817073,15 Z" id="Oval-2-Copy-4"></path>
                    </g>
                </g>
            </g>
        </g>
    </g>
</svg>