<?xml version="1.0" encoding="UTF-8"?>
<!-- Generator: Adobe Illustrator 22.0.1, SVG Export Plug-In . SVG Version: 6.00 Build 0)  -->
<svg version="1.1" id="_x37_k-1s-2" xmlns="http://www.w3.org/2000/svg" xmlns:xlink="http://www.w3.org/1999/xlink" x="0px" y="0px" width="1500px" height="1500px" viewBox="0 0 1500 1500" enable-background="new 0 0 1500 1500" xml:space="preserve">
<g id="d_копия_3">
	<line fill="none" stroke="#515151" stroke-width="2" stroke-miterlimit="10" x1="725.5" y1="949" x2="685.5" y2="989"/>
	<line fill="none" stroke="#515151" stroke-width="2" stroke-miterlimit="10" x1="839" y1="377" x2="799" y2="417"/>
	<line fill="none" stroke="#515151" stroke-width="2" stroke-miterlimit="10" x1="761" y1="520" x2="801" y2="560"/>
	<line fill="none" stroke="#515151" stroke-width="2" stroke-miterlimit="10" x1="866" y1="520" x2="826" y2="560"/>
	<line fill="none" stroke="#515151" stroke-width="2" stroke-miterlimit="10" x1="784" y1="490" x2="744" y2="450"/>
</g>
<g id="s_копия_3">
	<path fill="#515151" d="M838,360v18h105v133h-78v10h78v467H739v36h156v96H571v-96h115v-36H581V639h164V521h17v-10h-17v-13h-10v63   H581V378h154v73h10v-73h20v-18H563v628h-24v152h388v-110h34V360H838z M863,1020H743v-10h120V1020z M863,1008H743v-4h120V1008z    M863,1002H743v-10h120V1002z M735,571v58H616v-58H735z M606,571v58h-25v-58H606z M869,1136H597v-12h272V1136z"/>
</g>
<g id="t_копия_3">
	<g>
		<path fill="#86C98B" d="M703.4,710.9H690l-1.3,9c0.8-0.1,1.6-0.2,2.9-0.2c2.7,0,5.4,0.6,7.6,1.9c2.8,1.6,5,4.6,5,9    c0,6.9-5.5,12-13.1,12c-3.8,0-7.1-1.1-8.7-2.2l1.2-3.6c1.5,0.9,4.3,1.9,7.5,1.9c4.5,0,8.3-2.9,8.3-7.6c-0.1-4.5-3.1-7.8-10.1-7.8    c-2,0-3.6,0.2-4.9,0.4l2.3-16.8h16.8V710.9z"/>
		<path fill="#86C98B" d="M710.5,739.2c0-2,1.3-3.4,3.2-3.4s3.2,1.4,3.2,3.4c0,1.9-1.2,3.4-3.2,3.4    C711.8,742.6,710.5,741.1,710.5,739.2z"/>
		<path fill="#86C98B" d="M744.6,724.1c0,11.9-4.4,18.5-12.2,18.5c-6.9,0-11.5-6.4-11.6-18c0-11.8,5.1-18.3,12.2-18.3    C740.4,706.3,744.6,712.9,744.6,724.1z M725.6,724.6c0,9.1,2.8,14.3,7.1,14.3c4.9,0,7.2-5.7,7.2-14.6c0-8.6-2.2-14.3-7.1-14.3    C728.6,710,725.6,715.1,725.6,724.6z"/>
	</g>
	<g>
		<path fill="#86C98B" d="M860.6,461.5c1.3,0.9,4.5,2.2,7.8,2.2c6.1,0,8-3.9,7.9-6.8c-0.1-4.9-4.5-7-9.1-7h-2.6v-3.6h2.6    c3.5,0,7.8-1.8,7.8-5.9c0-2.8-1.8-5.3-6.2-5.3c-2.8,0-5.5,1.2-7,2.3l-1.2-3.5c1.8-1.4,5.4-2.7,9.2-2.7c6.9,0,10,4.1,10,8.4    c0,3.6-2.2,6.7-6.5,8.3v0.1c4.3,0.9,7.8,4.1,7.8,9c0,5.6-4.4,10.5-12.8,10.5c-3.9,0-7.4-1.2-9.1-2.4L860.6,461.5z"/>
		<path fill="#86C98B" d="M887.5,464.2c0-2,1.3-3.4,3.2-3.4s3.2,1.4,3.2,3.4c0,1.9-1.2,3.4-3.2,3.4    C888.8,467.6,887.5,466.1,887.5,464.2z"/>
		<path fill="#86C98B" d="M913,467v-9.6h-16.3v-3.1l15.7-22.4h5.1v21.8h4.9v3.7h-4.9v9.6H913z M913,453.7V442c0-1.8,0.1-3.7,0.2-5.5    H913c-1.1,2.1-1.9,3.6-2.9,5.2l-8.6,11.9v0.1H913z"/>
	</g>
	<g>
		<path fill="#86C98B" d="M683.9,1093v-2.9l3.7-3.6c9-8.5,13-13.1,13.1-18.4c0-3.6-1.7-6.9-7-6.9c-3.2,0-5.8,1.6-7.5,3l-1.5-3.3    c2.4-2.1,5.9-3.6,9.9-3.6c7.6,0,10.7,5.2,10.7,10.2c0,6.5-4.7,11.7-12.1,18.8l-2.8,2.6v0.1h15.8v3.9H683.9z"/>
		<path fill="#86C98B" d="M712,1090.2c0-2,1.3-3.4,3.2-3.4s3.2,1.4,3.2,3.4c0,1.9-1.2,3.4-3.2,3.4    C713.3,1093.6,712,1092.1,712,1090.2z"/>
		<path fill="#86C98B" d="M746.1,1075.1c0,11.9-4.4,18.5-12.2,18.5c-6.9,0-11.5-6.4-11.6-18c0-11.8,5.1-18.3,12.2-18.3    C741.9,1057.3,746.1,1063.9,746.1,1075.1z M727.1,1075.6c0,9.1,2.8,14.3,7.1,14.3c4.9,0,7.2-5.7,7.2-14.6c0-8.6-2.2-14.3-7.1-14.3    C730.1,1061,727.1,1066.1,727.1,1075.6z"/>
	</g>
	<g>
		<path fill="#86C98B" d="M800.7,858.3h-0.1l-6.1,3.3l-0.9-3.6l7.7-4.1h4V889h-4.6V858.3z"/>
		<path fill="#86C98B" d="M832.8,889v-9.6h-16.3v-3.1l15.7-22.4h5.1v21.8h4.9v3.7h-4.9v9.6H832.8z M832.8,875.7V864    c0-1.8,0.1-3.7,0.2-5.5h-0.2c-1.1,2.1-1.9,3.6-2.9,5.2l-8.6,11.9v0.1H832.8z"/>
		<path fill="#86C98B" d="M846.2,886.2c0-2,1.3-3.4,3.2-3.4s3.2,1.4,3.2,3.4c0,1.9-1.2,3.4-3.2,3.4    C847.5,889.6,846.2,888.1,846.2,886.2z"/>
		<path fill="#86C98B" d="M880.3,871.1c0,11.9-4.4,18.5-12.2,18.5c-6.9,0-11.5-6.4-11.6-18c0-11.8,5.1-18.3,12.2-18.3    C876.1,853.3,880.3,859.9,880.3,871.1z M861.3,871.6c0,9.1,2.8,14.3,7.1,14.3c4.9,0,7.2-5.7,7.2-14.6c0-8.6-2.2-14.3-7.1-14.3    C864.3,857,861.3,862.1,861.3,871.6z"/>
	</g>
	<g>
		<path fill="#86C98B" d="M639.6,491.2c1.3,0.9,4.5,2.2,7.8,2.2c6.1,0,8-3.9,7.9-6.8c-0.1-4.9-4.5-7-9.1-7h-2.6V476h2.6    c3.5,0,7.8-1.8,7.8-5.9c0-2.8-1.8-5.3-6.2-5.3c-2.8,0-5.5,1.2-7,2.3l-1.2-3.5c1.8-1.4,5.4-2.7,9.2-2.7c6.9,0,10,4.1,10,8.4    c0,3.6-2.2,6.7-6.5,8.3v0.1c4.3,0.9,7.8,4.1,7.8,9c0,5.6-4.4,10.5-12.8,10.5c-3.9,0-7.4-1.2-9.1-2.4L639.6,491.2z"/>
		<path fill="#86C98B" d="M666.5,493.8c0-2,1.3-3.4,3.2-3.4s3.2,1.4,3.2,3.4c0,1.9-1.2,3.4-3.2,3.4    C667.8,497.3,666.5,495.8,666.5,493.8z"/>
		<path fill="#86C98B" d="M697.3,464.9c-1-0.1-2.2,0-3.6,0.2c-7.5,1.2-11.4,6.7-12.2,12.5h0.2c1.7-2.2,4.6-4,8.5-4    c6.2,0,10.6,4.5,10.6,11.3c0,6.4-4.4,12.4-11.7,12.4c-7.5,0-12.4-5.8-12.4-15c0-6.9,2.5-12.4,5.9-15.8c2.9-2.9,6.8-4.6,11.2-5.2    c1.4-0.2,2.6-0.3,3.5-0.3V464.9z M696,485.2c0-5-2.9-8-7.2-8c-2.9,0-5.5,1.8-6.8,4.3c-0.3,0.5-0.5,1.2-0.5,2.1    c0.1,5.8,2.8,10,7.7,10C693.2,493.6,696,490.2,696,485.2z"/>
	</g>
</g>
<g id="m_копия_3">
	<g>
		<g>
			<path fill="#86C98B" d="M728,381v58H584v-58H728 M730,379H582v62h148V379L730,379z"/>
		</g>
		<g>
			<path fill="#86C98B" d="M700,387c12.1,0,22,9.9,22,22v2c0,12.1-9.9,22-22,22H592c-1.1,0-2-0.9-2-2v-42c0-1.1,0.9-2,2-2H700      M700,385H592c-2.2,0-4,1.8-4,4v42c0,2.2,1.8,4,4,4h108c13.3,0,24-10.7,24-24v-2C724,395.8,713.2,385,700,385L700,385z"/>
		</g>
		<g>
			<path fill="#86C98B" d="M682,395c7.7,0,14,6.3,14,14v2c0,7.7-6.3,14-14,14h-82c-1.1,0-2-0.9-2-2v-26c0-1.1,0.9-2,2-2H682      M682,393h-82c-2.2,0-4,1.8-4,4v26c0,2.2,1.8,4,4,4h82c8.8,0,16-7.2,16-16v-2C698,400.2,690.8,393,682,393L682,393z"/>
		</g>
		<circle fill="none" stroke="#86C98B" stroke-miterlimit="10" cx="612.5" cy="410.5" r="3"/>
	</g>
	<g>
		<polyline fill="none" stroke="#86C98B" stroke-width="2" stroke-miterlimit="10" points="626,517 583,517 583,547 626,547   "/>
		<g>
			<path fill="#86C98B" d="M626.1,518c7.7,0,13.9,6.3,13.9,14s-6.2,14-13.9,14c-7.9-0.5-28.6-2.4-36.1-5.3v-17.4     C597.5,520.4,618.2,518.5,626.1,518 M626,516c0,0-30,2-38,6v20c8,4,38,6,38,6c8.8,0,16-7.2,16-16S634.8,516,626,516L626,516z"/>
		</g>
	</g>
	<g>
		<polyline fill="none" stroke="#86C98B" stroke-width="2" stroke-miterlimit="10" points="600,504 583,504 583,452 600,452   "/>
		<g>
			<path fill="#86C98B" d="M600,453c13.1,0,19,11.1,19,22v6c0,11-5.9,22-19,22c-0.1,0-6.3-0.3-16-10.8v-28.4     C593.6,453.5,599.8,453,600,453 M600,451c0,0-7,0-18,12v30c11,12,18,12,18,12c13.3,0,21-10.7,21-24v-6     C621,461.7,613.3,451,600,451L600,451z"/>
		</g>
		<g>
			<path fill="#86C98B" d="M602,459c6.5,0,12,9.2,12,20s-5.5,20-12,20s-12-9.2-12-20S595.5,459,602,459 M602,457     c-7.7,0-14,9.8-14,22s6.3,22,14,22s14-9.8,14-22S609.7,457,602,457L602,457z"/>
		</g>
		<circle fill="none" stroke="#86C98B" stroke-miterlimit="10" cx="598.5" cy="478.5" r="3"/>
	</g>
	<g>
		<g>
			<g>
				<path fill="#86C98B" d="M634,747v50h-50v-50H634 M636,745h-54v54h54V745L636,745z"/>
			</g>
			<g>
				<line fill="none" stroke="#86C98B" stroke-width="2" stroke-miterlimit="10" x1="589" y1="798" x2="589" y2="746"/>
			</g>
			<g>
				<path fill="#86C98B" d="M626,753c1.1,0,2,0.9,2,2v34c0,1.1-0.9,2-2,2h-28c-1.1,0-2-0.9-2-2v-34c0-1.1,0.9-2,2-2H626 M626,751      h-28c-2.2,0-4,1.8-4,4v34c0,2.2,1.8,4,4,4h28c2.2,0,4-1.8,4-4v-34C630,752.8,628.2,751,626,751L626,751z"/>
			</g>
			
				<circle fill-rule="evenodd" clip-rule="evenodd" fill="none" stroke="#86C98B" stroke-miterlimit="10" cx="604" cy="772" r="3.5"/>
		</g>
		<g>
			<g>
				<path fill="#86C98B" d="M634,643v50h-50v-50H634 M636,641h-54v54h54V641L636,641z"/>
			</g>
			<g>
				<line fill="none" stroke="#86C98B" stroke-width="2" stroke-miterlimit="10" x1="589" y1="694" x2="589" y2="642"/>
			</g>
			<g>
				<path fill="#86C98B" d="M603,673c2.8,0,5,2.2,5,5s-2.2,5-5,5s-5-2.2-5-5S600.2,673,603,673 M603,671c-3.9,0-7,3.1-7,7s3.1,7,7,7      s7-3.1,7-7S606.9,671,603,671L603,671z"/>
			</g>
			<g>
				<path fill="#86C98B" d="M621,653c2.8,0,5,2.2,5,5s-2.2,5-5,5s-5-2.2-5-5S618.2,653,621,653 M621,651c-3.9,0-7,3.1-7,7s3.1,7,7,7      s7-3.1,7-7S624.9,651,621,651L621,651z"/>
			</g>
			<g>
				<path fill="#86C98B" d="M621,672c3.3,0,6,2.7,6,6s-2.7,6-6,6s-6-2.7-6-6S617.7,672,621,672 M621,670c-4.4,0-8,3.6-8,8s3.6,8,8,8      s8-3.6,8-8S625.4,670,621,670L621,670z"/>
			</g>
			<g>
				<path fill="#86C98B" d="M603,652c3.3,0,6,2.7,6,6s-2.7,6-6,6s-6-2.7-6-6S599.7,652,603,652 M603,650c-4.4,0-8,3.6-8,8s3.6,8,8,8      s8-3.6,8-8S607.4,650,603,650L603,650z"/>
			</g>
		</g>
		<g>
			<g>
				<line fill="none" stroke="#86C98B" stroke-width="2" stroke-miterlimit="10" x1="583" y1="746" x2="583" y2="694"/>
			</g>
			<g>
				<line fill="none" stroke="#86C98B" stroke-width="2" stroke-miterlimit="10" x1="589" y1="746" x2="589" y2="694"/>
			</g>
			<g>
				<line fill="none" stroke="#86C98B" stroke-width="2" stroke-miterlimit="10" x1="635" y1="746" x2="635" y2="694"/>
			</g>
		</g>
	</g>
	<g>
		<g>
			<path fill="#86C98B" d="M732,508v50h-34v-50H732 M734,506h-38v54h38V506L734,506z"/>
		</g>
		<g>
			<path fill="#86C98B" d="M715,522c6.1,0,11,4.9,11,11s-4.9,11-11,11s-11-4.9-11-11S708.9,522,715,522 M715,520     c-7.2,0-13,5.8-13,13s5.8,13,13,13s13-5.8,13-13S722.2,520,715,520L715,520z"/>
		</g>
		<circle fill="none" stroke="#86C98B" stroke-miterlimit="10" cx="715.5" cy="532.5" r="3"/>
	</g>
</g>
</svg>