<?xml version="1.0" encoding="UTF-8"?>
<svg width="148px" height="55px" viewBox="0 0 148 55" version="1.1" xmlns="http://www.w3.org/2000/svg" xmlns:xlink="http://www.w3.org/1999/xlink">
    <defs>
        <radialGradient cx="50%" cy="50%" fx="50%" fy="50%" r="142.177734%" id="radialGradient-1">
            <stop stop-color="#FFEBA2" offset="0%"></stop>
            <stop stop-color="#F76B1C" offset="100%"></stop>
        </radialGradient>
        <linearGradient x1="59.9243164%" y1="0%" x2="59.9243164%" y2="100%" id="linearGradient-2">
            <stop stop-color="#F0F4F7" offset="0%"></stop>
            <stop stop-color="#BFD0DA" offset="100%"></stop>
        </linearGradient>
        <linearGradient x1="50%" y1="96.4544802%" x2="50%" y2="2.26004464%" id="linearGradient-3">
            <stop stop-color="#9EB4C2" offset="0%"></stop>
            <stop stop-color="#8FA4B2" offset="100%"></stop>
        </linearGradient>
    </defs>
    <g id="section-2" stroke="none" stroke-width="1" fill="none" fill-rule="evenodd" transform="translate(-19.000000, -32.000000)">
        <g transform="translate(0.000000, 32.000000)" id="roof">
            <g transform="translate(19.000000, 0.000000)">
                <circle id="Oval-7" fill="url(#radialGradient-1)" cx="2.5" cy="46.5" r="2.5"></circle>
                <circle id="Oval-7-Copy-2" fill="url(#radialGradient-1)" cx="144.5" cy="46.5" r="2.5"></circle>
                <rect id="Rectangle-36" fill="url(#linearGradient-2)" x="65" y="2" width="1" height="53"></rect>
                <rect id="Rectangle-36-Copy" fill="url(#linearGradient-2)" x="91" y="13" width="1" height="42"></rect>
                <rect id="Rectangle-36-Copy-2" fill="url(#linearGradient-2)" x="94" y="13" width="1" height="42"></rect>
                <circle id="Oval-7-Copy" fill="url(#radialGradient-1)" cx="65.5" cy="2.5" r="2.5"></circle>
                <rect id="Rectangle-20-Copy-10" fill="url(#linearGradient-2)" x="132" y="52" width="16" height="3"></rect>
                <rect id="Rectangle-20-Copy-11" fill="url(#linearGradient-2)" x="136" y="49" width="8" height="3"></rect>
                <rect id="Rectangle-20-Copy-12" fill="url(#linearGradient-2)" x="140" y="47" width="4" height="2"></rect>
                <path d="M4,47 L26,47 C26.5522847,47 27,47.4477153 27,48 L27,55 L3,55 L3,48 C3,47.4477153 3.44771525,47 4,47 Z" id="Rectangle-20" fill="url(#linearGradient-2)"></path>
                <path d="M7,50 L23,50 C23.5522847,50 24,50.4477153 24,51 L24,55 L6,55 L6,51 C6,50.4477153 6.44771525,50 7,50 Z" id="Rectangle-20-Copy" fill="url(#linearGradient-3)"></path>
                <path d="M101,47 L123,47 C123.552285,47 124,47.4477153 124,48 L124,55 L100,55 L100,48 C100,47.4477153 100.447715,47 101,47 Z" id="Rectangle-20-Copy-9" fill="url(#linearGradient-2)"></path>
                <path d="M104,50 L120,50 C120.552285,50 121,50.4477153 121,51 L121,55 L103,55 L103,51 C103,50.4477153 103.447715,50 104,50 Z" id="Rectangle-20-Copy-8" fill="url(#linearGradient-3)"></path>
                <path d="M30,47 L42,47 C42.5522847,47 43,47.4477153 43,48 L43,55 L29,55 L29,48 C29,47.4477153 29.4477153,47 30,47 Z" id="Rectangle-20-Copy-5" fill="url(#linearGradient-2)"></path>
                <path d="M33,50 L39,50 C39.5522847,50 40,50.4477153 40,51 L40,55 L32,55 L32,51 C32,50.4477153 32.4477153,50 33,50 Z" id="Rectangle-20-Copy-4" fill="url(#linearGradient-3)"></path>
                <path d="M46,47 L58,47 C58.5522847,47 59,47.4477153 59,48 L59,55 L45,55 L45,48 C45,47.4477153 45.4477153,47 46,47 Z" id="Rectangle-20-Copy-7" fill="url(#linearGradient-2)"></path>
                <path d="M49,50 L55,50 C55.5522847,50 56,50.4477153 56,51 L56,55 L48,55 L48,51 C48,50.4477153 48.4477153,50 49,50 Z" id="Rectangle-20-Copy-6" fill="url(#linearGradient-3)"></path>
            </g>
        </g>
    </g>
</svg>