<svg class="SvgIco" width="9px" height="18px" viewBox="0 0 9 18" version="1.1" xmlns="http://www.w3.org/2000/svg" xmlns:xlink="http://www.w3.org/1999/xlink">
    <g id="Page-1" stroke="none" stroke-width="1" fill="none" fill-rule="evenodd">
        <g class="SvgIco_path" id="Artboard" transform="translate(-979.000000, -521.000000)" fill="#606164" fill-rule="nonzero">
            <g id="Kotelniki_BlueAnt_logo" transform="translate(979.000000, 521.000000)">
                <path d="M8.31438578,7.65292472 L8.62440674,7.96294568 L8.9344277,7.65292472 L8.62440674,7.34290376 L8.31438578,7.65292472 Z M5.35288546,10.6144119 L5.0428645,10.9244767 L5.35288546,11.2344976 L5.6629108,10.9244767 L5.35288546,10.6144119 Z M2.41086941,7.67243528 L2.10084406,7.36237046 L1.79082311,7.67243528 L2.10084406,7.98245624 L2.41086941,7.67243528 Z M1.00036962,0.958956616 L8.00436482,7.96294568 L8.62440674,7.34290376 L1.62041768,0.33890856 L1.00036962,0.958956616 Z M8.00436482,7.34290376 L5.0428645,10.3043909 L5.6629108,10.9244767 L8.62440674,7.96294568 L8.00436482,7.34290376 Z M5.6629108,10.3043909 L2.72089475,7.36237046 L2.10084406,7.98245624 L5.0428645,10.9244767 L5.6629108,10.3043909 Z M2.72089475,7.98245624 L5.65280476,5.05051994 L5.03275844,4.43047803 L2.10084406,7.36237046 L2.72089475,7.98245624 Z" id="path0_stroke" transform="translate(4.967399, 5.786703) rotate(180.000000) translate(-4.967399, -5.786703) "></path>
                <polygon id="path1_stroke" points="7.1403312 9.47944068 9.02857986 7.59119202 8.40853356 6.97114398 6.52028316 8.85939438"></polygon>
                <polygon id="path2_stroke" points="6.31737882 2.71080316 8.20563222 0.822554532 7.58558592 0.202506477 5.69733161 2.09075686"></polygon>
                <polygon id="path3_stroke" transform="translate(1.925428, 1.456655) scale(-1, 1) translate(-1.925428, -1.456655) " points="1.29132804 2.71080316 3.17957665 0.822554532 2.55953035 0.202506477 0.671279982 2.09075686"></polygon>
                <path d="M7.43750586,14.2295252 L7.74752682,14.5395461 L8.05754778,14.2295252 L7.74752682,13.9195042 L7.43750586,14.2295252 Z M4.47600556,17.1910123 L4.1659846,17.5010771 L4.47600556,17.811098 L4.7860309,17.5010771 L4.47600556,17.1910123 Z M1.53398951,14.2490357 L1.22396417,13.9389709 L0.913943208,14.2490357 L1.22396417,14.5590567 L1.53398951,14.2490357 Z M0.123489724,7.53555708 L7.1274849,14.5395461 L7.74752682,13.9195042 L0.743537784,6.91550898 L0.123489724,7.53555708 Z M7.1274849,13.9195042 L4.1659846,16.8809913 L4.7860309,17.5010771 L7.74752682,14.5395461 L7.1274849,13.9195042 Z M4.7860309,16.8809913 L1.84401487,13.9389709 L1.22396417,14.5590567 L4.1659846,17.5010771 L4.7860309,16.8809913 Z M1.84401487,14.5590567 L4.77592486,11.6271204 L4.15587856,11.0070785 L1.22396417,13.9389709 L1.84401487,14.5590567 Z" id="path0_stroke"></path>
                <polygon id="path1_stroke" points="0.923213586 11.208742 2.8114622 9.32049342 2.1914159 8.70044538 0.303165526 10.5886957"></polygon>
            </g>
        </g>
    </g>
</svg>